﻿[{
        "Name": "Great Jagras",
        "Type": "Fanged Wyvern",
        "Fire": 3,
        "Water": 0,
        "Thunder": 2,
        "Ice": 2,
        "Dragon": 1,
        "Poison": 3,
        "Sleep": 3,
        "Paralysis": 3,
        "Blast": 3,
        "Stun": 3
    },
    {
        "Name": "Kulu-Ya-Ku",
        "Type": "Bird Wyvern",
        "Fire": 2,
        "Water": 3,
        "Thunder": 2,
        "Ice": 2,
        "Dragon": 2,
        "Poison": 2,
        "Sleep": 2,
        "Paralysis": 2,
        "Blast": 2,
        "Stun": 2
    },
    {
        "Name": "Pukei-Pukei",
        "Type": "Bird Wyvern",
        "Fire": 2,
        "Water": 0,
        "Thunder": 3,
        "Ice": 2,
        "Dragon": 1,
        "Poison": 1,
        "Sleep": 3,
        "Paralysis": 3,
        "Blast": 2,
        "Stun": 2
    },
    {
        "Name": "Barroth",
        "Type": "Brute Wyvern",
        "Fire": "3(0)",
        "Water": "0(3)",
        "Thunder": 0,
        "Ice": 2,
        "Dragon": 1,
        "Poison": 3,
        "Sleep": 2,
        "Paralysis": 3,
        "Blast": 3,
        "Stun": 1
    },
    {
        "Name": "Jyuratodus",
        "Type": "Piscine Wyvern",
        "Fire": "1(0)",
        "Water": "0(3)",
        "Thunder": "3(0)",
        "Ice": 1,
        "Dragon": 1,
        "Poison": 2,
        "Sleep": 1,
        "Paralysis": 2,
        "Blast": 1,
        "Stun": 3
    },
    {
        "Name": "Tobi-Kadachi",
        "Type": "Fanged Wyvern",
        "Fire": 2,
        "Water": 3,
        "Thunder": 0,
        "Ice": 2,
        "Dragon": 1,
        "Poison": 3,
        "Sleep": 2,
        "Paralysis": 2,
        "Blast": 2,
        "Stun": 2
    },
    {
        "Name": "Anjanath",
        "Type": "Brute Wyvern",
        "Fire": 0,
        "Water": 3,
        "Thunder": 2,
        "Ice": 2,
        "Dragon": 2,
        "Poison": 1,
        "Sleep": 2,
        "Paralysis": 2,
        "Blast": 1,
        "Stun": 2
    },
    {
        "Name": "Rathian",
        "Type": "Flying Wyvern",
        "Fire": 0,
        "Water": 1,
        "Thunder": 2,
        "Ice": 1,
        "Dragon": 3,
        "Poison": 1,
        "Sleep": 2,
        "Paralysis": 2,
        "Blast": 1,
        "Stun": 3
    },
    {
        "Name": "Tzitzi-Ya-Ku",
        "Type": "Bird Wyvern",
        "Fire": 2,
        "Water": 2,
        "Thunder": 3,
        "Ice": 3,
        "Dragon": 2,
        "Poison": 2,
        "Sleep": 2,
        "Paralysis": 2,
        "Blast": 2,
        "Stun": 2
    },
    {
        "Name": "Paolumu",
        "Type": "Flying Wyvern",
        "Fire": 3,
        "Water": 0,
        "Thunder": 2,
        "Ice": 1,
        "Dragon": 1,
        "Poison": 2,
        "Sleep": 2,
        "Paralysis": 2,
        "Blast": 3,
        "Stun": 3
    },
    {
        "Name": "Great Girros",
        "Type": "Fanged Wyvern",
        "Fire": 2,
        "Water": 3,
        "Thunder": 0,
        "Ice": 2,
        "Dragon": 1,
        "Poison": 2,
        "Sleep": 3,
        "Paralysis": 1,
        "Blast": 2,
        "Stun": 2
    },
    {
        "Name": "Radobaan",
        "Type": "Brute Wyvern",
        "Fire": 1,
        "Water": 1,
        "Thunder": 1,
        "Ice": 2,
        "Dragon": 3,
        "Poison": 2,
        "Sleep": 1,
        "Paralysis": 2,
        "Blast": 3,
        "Stun": 2
    },
    {
        "Name": "Legiana",
        "Type": "Flying Wyvern",
        "Fire": 2,
        "Water": 1,
        "Thunder": 3,
        "Ice": 0,
        "Dragon": 1,
        "Poison": 3,
        "Sleep": 2,
        "Paralysis": 2,
        "Blast": 2,
        "Stun": 2
    },
    {
        "Name": "Odogaron",
        "Type": "Fanged Wyvern",
        "Fire": 1,
        "Water": 1,
        "Thunder": 2,
        "Ice": 3,
        "Dragon": 0,
        "Poison": 1,
        "Sleep": 2,
        "Paralysis": 3,
        "Blast": 2,
        "Stun": 2
    },
    {
        "Name": "Rathalos",
        "Type": "Flying Wyvern",
        "Fire": 0,
        "Water": 1,
        "Thunder": 2,
        "Ice": 1,
        "Dragon": 3,
        "Poison": 1,
        "Sleep": 2,
        "Paralysis": 2,
        "Blast": 1,
        "Stun": 2
    },
    {
        "Name": "Diablos",
        "Type": "Flying Wyvern",
        "Fire": 0,
        "Water": 2,
        "Thunder": 1,
        "Ice": 3,
        "Dragon": 2,
        "Poison": 2,
        "Sleep": 2,
        "Paralysis": 3,
        "Blast": 2,
        "Stun": 1
    },
    {
        "Name": "Kirin",
        "Type": "Elder Dragon",
        "Fire": 3,
        "Water": 2,
        "Thunder": 0,
        "Ice": 2,
        "Dragon": 1,
        "Poison": 1,
        "Sleep": 2,
        "Paralysis": 0,
        "Blast": 2,
        "Stun": 1
    },
    {
        "Name": "Zorah Magdaros",
        "Type": "Elder Dragon",
        "Fire": 0,
        "Water": 3,
        "Thunder": 1,
        "Ice": 2,
        "Dragon": 3,
        "Poison": 0,
        "Sleep": 0,
        "Paralysis": 0,
        "Blast": 0,
        "Stun": 0
    },
    {
        "Name": "Dodogama",
        "Type": "Fanged Wyvern",
        "Fire": 0,
        "Water": 2,
        "Thunder": 3,
        "Ice": 2,
        "Dragon": 1,
        "Poison": 3,
        "Sleep": 2,
        "Paralysis": 2,
        "Blast": 1,
        "Stun": 2
    },
    {
        "Name": "Pink Rathian",
        "Type": "Flying Wyvern",
        "Fire": 0,
        "Water": 1,
        "Thunder": 2,
        "Ice": 1,
        "Dragon": 3,
        "Poison": 1,
        "Sleep": 2,
        "Paralysis": 2,
        "Blast": 1,
        "Stun": 3
    },
    {
        "Name": "Bazelgeuse",
        "Type": "Flying Wyvern",
        "Fire": 0,
        "Water": 1,
        "Thunder": 3,
        "Ice": 2,
        "Dragon": 2,
        "Poison": 2,
        "Sleep": 2,
        "Paralysis": 2,
        "Blast": 1,
        "Stun": 1
    },
    {
        "Name": "Lavasioth",
        "Type": "Piscine Wyvern",
        "Fire": "0(1)",
        "Water": "3(2)",
        "Thunder": "2(0)",
        "Ice": "2(0)",
        "Dragon": 1,
        "Poison": 3,
        "Sleep": 1,
        "Paralysis": 2,
        "Blast": 1,
        "Stun": 2
    },
    {
        "Name": "Uragaan",
        "Type": "Brute Wyvern",
        "Fire": 0,
        "Water": 3,
        "Thunder": 1,
        "Ice": 2,
        "Dragon": 2,
        "Poison": 3,
        "Sleep": 1,
        "Paralysis": 2,
        "Blast": 2,
        "Stun": 3
    },
    {
        "Name": "Azure Rathalos",
        "Type": "Flying Wyvern",
        "Fire": 0,
        "Water": 1,
        "Thunder": 1,
        "Ice": 2,
        "Dragon": 3,
        "Poison": 1,
        "Sleep": 2,
        "Paralysis": 2,
        "Blast": 1,
        "Stun": 2
    },
    {
        "Name": "Black Diablos",
        "Type": "Flying Wyvern",
        "Fire": 0,
        "Water": 2,
        "Thunder": 1,
        "Ice": 3,
        "Dragon": 0,
        "Poison": 2,
        "Sleep": 2,
        "Paralysis": 3,
        "Blast": 2,
        "Stun": 1
    },
    {
        "Name": "Nergigante",
        "Type": "Elder Dragon",
        "Fire": 1,
        "Water": 1,
        "Thunder": 3,
        "Ice": 1,
        "Dragon": 2,
        "Poison": 2,
        "Sleep": 2,
        "Paralysis": 2,
        "Blast": 2,
        "Stun": 2
    },
    {
        "Name": "Teostra",
        "Type": "Elder Dragon",
        "Fire": 0,
        "Water": 3,
        "Thunder": 1,
        "Ice": 3,
        "Dragon": 1,
        "Poison": 2,
        "Sleep": 1,
        "Paralysis": 1,
        "Blast": 1,
        "Stun": 2
    },
    {
        "Name": "Kushala Daora",
        "Type": "Elder Dragon",
        "Fire": 1,
        "Water": 0,
        "Thunder": 3,
        "Ice": 0,
        "Dragon": 2,
        "Poison": 3,
        "Sleep": 1,
        "Paralysis": 1,
        "Blast": 3,
        "Stun": 2
    },
    {
        "Name": "Vaal Hazak",
        "Type": "Elder Dragon",
        "Fire": 3,
        "Water": 0,
        "Thunder": 1,
        "Ice": 2,
        "Dragon": 3,
        "Poison": 1,
        "Sleep": 1,
        "Paralysis": 1,
        "Blast": 2,
        "Stun": 2
    },
    {
        "Name": "Xeno'jiiva",
        "Type": "Elder Dragon",
        "Fire": 2,
        "Water": 2,
        "Thunder": 2,
        "Ice": 2,
        "Dragon": 2,
        "Poison": 3,
        "Sleep": 0,
        "Paralysis": 1,
        "Blast": 2,
        "Stun": 1
    },
    {
        "Name": "Deviljho",
        "Type": "Brute Wyvern",
        "Fire": 2,
        "Water": 2,
        "Thunder": 3,
        "Ice": 1,
        "Dragon": 3,
        "Poison": 2,
        "Sleep": 2,
        "Paralysis": 2,
        "Blast": 2,
        "Stun": 2
    },
    {
        "Name": "Kulve Taroth",
        "Type": "Elder Dragon",
        "Fire": "0(1)",
        "Water": 2,
        "Thunder": "0(3)",
        "Ice": "3(0)",
        "Dragon": "2(1)",
        "Poison": 1,
        "Sleep": 1,
        "Paralysis": 1,
        "Blast": 1,
        "Stun": 1
    },
    {
        "Name": "Lunastra",
        "Type": "Elder Dragon",
        "Fire": 0,
        "Water": 1,
        "Thunder": 1,
        "Ice": 3,
        "Dragon": 2,
        "Poison": 1,
        "Sleep": 1,
        "Paralysis": 1,
        "Blast": 2,
        "Stun": 2
    },
    {
        "Name": "Behemoth",
        "Type": "Elder Dragon",
        "Fire": 1,
        "Water": 2,
        "Thunder": 1,
        "Ice": 2,
        "Dragon": 3,
        "Poison": 2,
        "Sleep": 2,
        "Paralysis": 2,
        "Blast": 2,
        "Stun": 2
    },
    {
        "Name": "Leshen",
        "Type": "Relict",
        "Fire": 3,
        "Water": 0,
        "Thunder": 2,
        "Ice": 1,
        "Dragon": 2,
        "Poison": 3,
        "Sleep": 0,
        "Paralysis": 2,
        "Blast": 2,
        "Stun": 1
    },
    {
        "Name": "Ancient Leshen",
        "Type": "Relict",
        "Fire": 3,
        "Water": 0,
        "Thunder": 2,
        "Ice": 1,
        "Dragon": 2,
        "Poison": 2,
        "Sleep": 0,
        "Paralysis": 1,
        "Blast": 1,
        "Stun": 1
    },
    {
        "Name": "Beotodus",
        "Type": "Piscine Wyvern",
        "Fire": 3,
        "Water": 1,
        "Thunder": 2,
        "Ice": 0,
        "Dragon": 0,
        "Poison": 2,
        "Sleep": 2,
        "Paralysis": 2,
        "Blast": 3,
        "Stun": 2
    },
    {
        "Name": "Banbaro",
        "Type": "Brute Wyvern",
        "Fire": 2,
        "Water": 0,
        "Thunder": 1,
        "Ice": 0,
        "Dragon": 3,
        "Poison": 2,
        "Sleep": 2,
        "Paralysis": 2,
        "Blast": 3,
        "Stun": 3
    },
    {
        "Name": "Viper Tobi-Kadachi",
        "Type": "Fanged Wyvern",
        "Fire": 1,
        "Water": 0,
        "Thunder": 3,
        "Ice": 2,
        "Dragon": 1,
        "Poison": 1,
        "Sleep": 2,
        "Paralysis": 1,
        "Blast": 2,
        "Stun": 2
    },
    {
        "Name": "Nightshade Paolumu",
        "Type": "Flying Wyvern",
        "Fire": 2,
        "Water": 3,
        "Thunder": 1,
        "Ice": 1,
        "Dragon": 0,
        "Poison": 2,
        "Sleep": 1,
        "Paralysis": 2,
        "Blast": 2,
        "Stun": 2
    },
    {
        "Name": "Coral Pukei-Pukei",
        "Type": "Bird Wyvern",
        "Fire": 1,
        "Water": 0,
        "Thunder": 2,
        "Ice": 3,
        "Dragon": 1,
        "Poison": 3,
        "Sleep": 2,
        "Paralysis": 2,
        "Blast": 2,
        "Stun": 2
    },
    {
        "Name": "Barioth",
        "Type": "Flying Wyvern",
        "Fire": 3,
        "Water": 0,
        "Thunder": 2,
        "Ice": 0,
        "Dragon": 1,
        "Poison": 2,
        "Sleep": 2,
        "Paralysis": 2,
        "Blast": 2,
        "Stun": 2
    },
    {
        "Name": "Nargacuga",
        "Type": "Flying Wyvern",
        "Fire": 2,
        "Water": 0,
        "Thunder": 3,
        "Ice": 1,
        "Dragon": 1,
        "Poison": 2,
        "Sleep": 2,
        "Paralysis": 2,
        "Blast": 2,
        "Stun": 2
    },
    {
        "Name": "Glavenus",
        "Type": "Brute Wyvern",
        "Fire": 0,
        "Water": 3,
        "Thunder": 1,
        "Ice": 2,
        "Dragon": 2,
        "Poison": 2,
        "Sleep": 2,
        "Paralysis": 2,
        "Blast": 2,
        "Stun": 2
    },
    {
        "Name": "Tigrex",
        "Type": "Flying Wyvern",
        "Fire": 0,
        "Water": 1,
        "Thunder": 3,
        "Ice": 1,
        "Dragon": 2,
        "Poison": 2,
        "Sleep": 2,
        "Paralysis": 2,
        "Blast": 2,
        "Stun": 2
    },
    {
        "Name": "Brachydios",
        "Type": "Brute Wyvern",
        "Fire": 0,
        "Water": 2,
        "Thunder": 1,
        "Ice": 3,
        "Dragon": 1,
        "Poison": 2,
        "Sleep": 2,
        "Paralysis": 2,
        "Blast": 1,
        "Stun": 2
    },
    {
        "Name": "Shrieking Legiana",
        "Type": "Flying Wyvern",
        "Fire": 3,
        "Water": 1,
        "Thunder": 2,
        "Ice": 0,
        "Dragon": 1,
        "Poison": 3,
        "Sleep": 2,
        "Paralysis": 2,
        "Blast": 2,
        "Stun": 2
    },
    {
        "Name": "Fulgur Anjanath",
        "Type": "Brute Wyvern",
        "Fire": 2,
        "Water": "2(3)",
        "Thunder": 0,
        "Ice": "3(2)",
        "Dragon": 1,
        "Poison": 2,
        "Sleep": 2,
        "Paralysis": 2,
        "Blast": 1,
        "Stun": 2
    },
    {
        "Name": "Acidic Glavenus",
        "Type": "Brute Wyvern",
        "Fire": 3,
        "Water": 1,
        "Thunder": 2,
        "Ice": 1,
        "Dragon": "2(1)",
        "Poison": 2,
        "Sleep": 2,
        "Paralysis": 2,
        "Blast": 2,
        "Stun": 2
    },
    {
        "Name": "Ebony Odogaron",
        "Type": "Fanged Wyvern",
        "Fire": 2,
        "Water": 3,
        "Thunder": 2,
        "Ice": 2,
        "Dragon": 1,
        "Poison": 3,
        "Sleep": 2,
        "Paralysis": 3,
        "Blast": 2,
        "Stun": 2
    },
    {
        "Name": "Velkhana",
        "Type": "Elder Dragon",
        "Fire": 3,
        "Water": 1,
        "Thunder": 2,
        "Ice": 0,
        "Dragon": 2,
        "Poison": 2,
        "Sleep": 1,
        "Paralysis": 1,
        "Blast": 3,
        "Stun": 1
    },
    {
        "Name": "Seething Bazelgeuse",
        "Type": "Flying Wyvern",
        "Fire": 0,
        "Water": 1,
        "Thunder": 2,
        "Ice": 3,
        "Dragon": 1,
        "Poison": 2,
        "Sleep": 3,
        "Paralysis": 2,
        "Blast": 1,
        "Stun": 2
    },
    {
        "Name": "Black Veil Vaal Hazak",
        "Type": "Elder Dragon",
        "Fire": 2,
        "Water": 0,
        "Thunder": 1,
        "Ice": 1,
        "Dragon": 2,
        "Poison": 1,
        "Sleep": 1,
        "Paralysis": 1,
        "Blast": 2,
        "Stun": 1
    },
    {
        "Name": "Namielle",
        "Type": "Elder Dragon",
        "Fire": 3,
        "Water": 0,
        "Thunder": 0,
        "Ice": 1,
        "Dragon": 2,
        "Poison": 3,
        "Sleep": 1,
        "Paralysis": 1,
        "Blast": 3,
        "Stun": 2
    },
    {
        "Name": "Savage Deviljho",
        "Type": "Brute Wyvern",
        "Fire": 2,
        "Water": 2,
        "Thunder": 3,
        "Ice": 1,
        "Dragon": 3,
        "Poison": 3,
        "Sleep": 3,
        "Paralysis": 3,
        "Blast": 2,
        "Stun": 2
    },
    {
        "Name": "Ruiner Nergigante",
        "Type": "Elder Dragon",
        "Fire": 1,
        "Water": 1,
        "Thunder": 2,
        "Ice": 1,
        "Dragon": 3,
        "Poison": 2,
        "Sleep": 2,
        "Paralysis": 2,
        "Blast": 3,
        "Stun": 1
    },
    {
        "Name": "Shara Ishvalda",
        "Type": "Elder Dragon",
        "Fire": 1,
        "Water": 2,
        "Thunder": 0,
        "Ice": 3,
        "Dragon": 1,
        "Poison": 2,
        "Sleep": 0,
        "Paralysis": 1,
        "Blast": "3(2)",
        "Stun": 1
    },
    {
        "Name": "Zinogre",
        "Type": "Fanged Wyvern",
        "Fire": 1,
        "Water": 2,
        "Thunder": 0,
        "Ice": 3,
        "Dragon": 1,
        "Poison": 2,
        "Sleep": 2,
        "Paralysis": 1,
        "Blast": 2,
        "Stun": 2
    },
    {
        "Name": "Yian Garuga",
        "Type": "Bird Wyvern",
        "Fire": 0,
        "Water": 3,
        "Thunder": 0,
        "Ice": 1,
        "Dragon": 2,
        "Poison": 1,
        "Sleep": 1,
        "Paralysis": 2,
        "Blast": 3,
        "Stun": 2
    },
    {
        "Name": "Scarred Yian Garuga",
        "Type": "Bird Wyvern",
        "Fire": 0,
        "Water": 3,
        "Thunder": 0,
        "Ice": 1,
        "Dragon": 2,
        "Poison": 1,
        "Sleep": 1,
        "Paralysis": 2,
        "Blast": 3,
        "Stun": 2
    },
    {
        "Name": "Gold Rathian",
        "Type": "Flying Wyvern",
        "Fire": 0,
        "Water": 2,
        "Thunder": 3,
        "Ice": 1,
        "Dragon": 0,
        "Poison": 1,
        "Sleep": 2,
        "Paralysis": 2,
        "Blast": 1,
        "Stun": 2
    },
    {
        "Name": "Silver Rathalos",
        "Type": "Flying Wyvern",
        "Fire": 0,
        "Water": 3,
        "Thunder": 2,
        "Ice": 1,
        "Dragon": 0,
        "Poison": 1,
        "Sleep": 2,
        "Paralysis": 2,
        "Blast": 1,
        "Stun": 2
    },
    {
        "Name": "Brute Tigrex",
        "Type": "Flying Wyvern",
        "Fire": 0,
        "Water": 3,
        "Thunder": 2,
        "Ice": 1,
        "Dragon": 1,
        "Poison": 2,
        "Sleep": 2,
        "Paralysis": 2,
        "Blast": 2,
        "Stun": 2
    },
    {
        "Name": "Rajang",
        "Type": "Fanged Beast",
        "Fire": 0,
        "Water": 1,
        "Thunder": 0,
        "Ice": 3,
        "Dragon": 0,
        "Poison": 1,
        "Sleep": 1,
        "Paralysis": 1,
        "Blast": 2,
        "Stun": 1
    },
    {
        "Name": "Stygian Zinogre",
        "Type": "Fanged Wyvern",
        "Fire": "0(1)",
        "Water": "0(2)",
        "Thunder": "1(3)",
        "Ice": "0(1)",
        "Dragon": 0,
        "Poison": 2,
        "Sleep": 2,
        "Paralysis": 2,
        "Blast": 3,
        "Stun": 2
    },
    {
        "Name": "Safi'Jiiva",
        "Type": "Elder Dragon",
        "Fire": 2,
        "Water": 2,
        "Thunder": 2,
        "Ice": 2,
        "Dragon": "2(3)",
        "Poison": 3,
        "Sleep": 1,
        "Paralysis": 2,
        "Blast": 3,
        "Stun": 2
    },
    {
        "Name": "Raging Brachydios",
        "Type": "Brute Wyvern",
        "Fire": 0,
        "Water": 2,
        "Thunder": 1,
        "Ice": 3,
        "Dragon": 1,
        "Poison": 2,
        "Sleep": 2,
        "Paralysis": 2,
        "Blast": 1,
        "Stun": 2
    },
    {
        "Name": "Furious Rajang",
        "Type": "Fanged Beast",
        "Fire": 0,
        "Water": 1,
        "Thunder": 0,
        "Ice": 3,
        "Dragon": 0,
        "Poison": 1,
        "Sleep": 1,
        "Paralysis": 1,
        "Blast": 2,
        "Stun": 1
    },
    {
        "Name": "Alatreon (Fire active)",
        "Type": "Elder Dragon",
        "Fire": 0,
        "Water": 2,
        "Thunder": 1,
        "Ice": 3,
        "Dragon": 1,
        "Poison": 1,
        "Sleep": 1,
        "Paralysis": 1,
        "Blast": 1,
        "Stun": 1
    },
    {
        "Name": "Alatreon (Ice active)",
        "Type": "Elder Dragon",
        "Fire": 3,
        "Water": 1,
        "Thunder": 2,
        "Ice": 0,
        "Dragon": 1,
        "Poison": 1,
        "Sleep": 1,
        "Paralysis": 1,
        "Blast": 1,
        "Stun": 1
    },
    {
        "Name": "Alatreon (Dragon active)",
        "Type": "Elder Dragon",
        "Fire": 1,
        "Water": 1,
        "Thunder": 1,
        "Ice": 1,
        "Dragon": 2,
        "Poison": 1,
        "Sleep": 1,
        "Paralysis": 1,
        "Blast": 1,
        "Stun": 1
    }
]